user_id,rating
1629535,8
1632382,8
1636167,8
1635665,10
1636034,7
917461,10
1629728,2
1470225,5
1629909,2
1629768,0
418508,8
1634221,0
1633542,10
1629255,9
1629841,5
1629609,10
1636964,10
1634091,3
1632231,1
1631541,0
1635412,10
1632133,10
1633953,5
1635006,8
1635723,1
1633014,1
1629834,6
1631112,9
1633432,10
68023,10
1633326,8
729792,8
1628783,0
1636361,7
1214038,7
1635476,8
1636940,10
1636502,10
1636676,10
1500436,8
958446,10
1631783,10
1631757,8
1632867,10
1631823,10
960622,9
1629425,10
1636267,0
1474378,8
1635049,9
1382204,8
1636341,8
1634797,0
1022862,8
1294547,10
1630291,4
1636999,0
1633832,10
1632616,0
1636670,9
1199670,10
125771,8
1633263,10
1629613,9
1633818,0
1629930,10
1630772,10
1636844,2
1630307,0
1633028,10
1629126,7
1636966,10
1630827,8
1635794,7
1631157,9
1629618,0
1633878,10
1631410,1
1053587,10
1632940,0
1635062,10
1046223,5
1629593,10
1630347,10
1635421,10
1630899,0
430991,2
1634109,7
1632441,10
1628585,7
1111861,9
264232,0
1629327,9
1630418,8
1208459,7
1629869,10
1629131,8
1630096,10
1633627,7
925345,10
1340771,8
1635797,10
1630385,8
1629037,3
1633660,8
1634341,10
1635800,10
644598,6
1634625,5
1631262,10
1629891,9
125771,8
1631488,10
1636970,9
1484534,0
1634844,8
1636770,5
1633431,10
1633257,9
1630017,0
1630825,0
1628713,10
1628707,10
1634003,9
1631661,10
1632476,10
1629244,9
1285372,10
454715,5
1636957,10
1358384,10
461228,6
1633790,10
1631114,10
1632987,10
1633779,4
1633609,10
1124625,8
1634936,8
1629978,10
1634545,8
1632684,0
1636959,4
1630453,10
1636299,7
1347560,6
1632951,0
1629774,1
1633937,0
1635531,0
1633717,10
188521,2
1632872,8
1633467,8
171346,3
1630153,10
1635224,2
1304567,9
1633505,10
1636494,5
1628804,0
1629559,5
1636402,10
1634619,4
82421,4
1632880,0
1636576,7
1634024,0
1634349,8
1634083,2
1629064,9
1636727,9
1192875,10
1241955,8
1631060,10
1634711,9
216363,10
1629935,10
1630506,9
167263,5
1635702,10
1629567,10
1631123,8
1635773,10
1629803,8
1629080,8
1636610,7
1157005,10
1634142,0
1634732,0
1634663,8
1311636,10
1629840,10
1632139,7
1631279,0
1631269,10
826404,10
1631622,10
1628246,10
1636141,10
